[
    "lastCheck",
    "website",
    "busFactor",
    "company",
    "passwordReset",
    "ratingGreenWebCheck",
    "inBandRegistration",
    "registrationWebPage",
    "ratingXmppComplianceTester",
    "ratingImObservatoryClientToServer",
    "ratingImObservatoryServerToServer",
    "maximumHttpFileUploadFileSize",
    "maximumHttpFileUploadTotalSize",
    "maximumHttpFileUploadStorageTime",
    "maximumMessageArchiveManagementStorageTime",
    "professionalHosting",
    "freeOfCharge",
    "legalNotice",
    "serverLocations",
    "groupChatSupport",
    "chatSupport",
    "emailSupport",
    "since"
]
